module gitlab.com/gitlab-org/gitlab-runner

go 1.18

require (
	cloud.google.com/go v0.72.0
	cloud.google.com/go/storage v1.12.0
	github.com/Azure/azure-storage-blob-go v0.11.1-0.20201209121048-6df5d9af221d
	github.com/BurntSushi/toml v0.3.1
	github.com/bmatcuk/doublestar v1.3.0
	github.com/creack/pty v1.1.11
	github.com/docker/cli v20.10.12+incompatible
	github.com/docker/distribution v2.7.0+incompatible
	github.com/docker/docker v20.10.12+incompatible
	github.com/docker/go-connections v0.3.0
	github.com/docker/go-units v0.4.0
	github.com/docker/machine v0.7.1-0.20170120224952-7b7a141da844
	github.com/fullsailor/pkcs7 v0.0.0-20190404230743-d7302db945fa
	github.com/getsentry/sentry-go v0.11.0
	github.com/golang/mock v1.4.4
	github.com/googleapis/gax-go/v2 v2.0.5
	github.com/gorhill/cronexpr v0.0.0-20160318121724-f0984319b442
	github.com/gorilla/websocket v1.4.2
	github.com/hashicorp/go-version v1.2.1
	github.com/hashicorp/vault/api v1.0.4
	github.com/imdario/mergo v0.3.7
	github.com/jpillora/backoff v1.0.0
	github.com/kardianos/service v1.2.0
	github.com/klauspost/pgzip v1.2.5
	github.com/minio/minio-go/v7 v7.0.28-0.20220610200644-47da873ffd36
	github.com/prometheus/client_golang v1.11.1
	github.com/prometheus/client_model v0.2.0
	github.com/prometheus/common v0.26.0
	github.com/prometheus/procfs v0.6.0
	github.com/saracen/fastzip v0.1.9
	github.com/sirupsen/logrus v1.8.1
	github.com/stretchr/testify v1.7.2
	github.com/tevino/abool v0.0.0-20160628101133-3c25f2fe7cd0
	github.com/urfave/cli v1.20.0
	gitlab.com/gitlab-org/fleeting/fleeting v0.0.0-20220920195511-c6823c0e2dd3
	gitlab.com/gitlab-org/fleeting/taskscaler v0.0.0-20220929194928-cf592a65f4fa
	gitlab.com/gitlab-org/gitlab-terminal v0.0.0-20210104151801-2a71b03b4462
	gitlab.com/gitlab-org/golang-cli-helpers v0.0.0-20210929155855-70bef318ae0a
	gocloud.dev v0.21.1-0.20201223184910-5094f54ed8bb
	golang.org/x/crypto v0.0.0-20220525230936-793ad666bf5e
	golang.org/x/net v0.0.0-20220923203811-8be639271d50
	golang.org/x/sync v0.0.0-20210220032951-036812b2e83c
	golang.org/x/sys v0.0.0-20220919091848-fb04ddd9f9c8
	golang.org/x/text v0.3.7
	google.golang.org/genproto v0.0.0-20220923205249-dd2d53f1fffc
	gopkg.in/yaml.v2 v2.4.0
	k8s.io/api v0.21.1
	k8s.io/apimachinery v0.21.1
	k8s.io/client-go v0.21.1
)

require (
	github.com/Azure/azure-pipeline-go v0.2.3 // indirect
	github.com/Azure/go-ansiterm v0.0.0-20170929234023-d6e3b3328b78 // indirect
	github.com/Azure/go-autorest v14.2.0+incompatible // indirect
	github.com/Azure/go-autorest/autorest v0.11.12 // indirect
	github.com/Azure/go-autorest/autorest/adal v0.9.6 // indirect
	github.com/Azure/go-autorest/autorest/date v0.3.0 // indirect
	github.com/Azure/go-autorest/logger v0.2.0 // indirect
	github.com/Azure/go-autorest/tracing v0.6.0 // indirect
	github.com/Azure/go-ntlmssp v0.0.0-20211209120228-48547f28849e // indirect
	github.com/ChrisTrenkamp/goxpath v0.0.0-20210404020558-97928f7e12b6 // indirect
	github.com/Microsoft/go-winio v0.5.2 // indirect
	github.com/beorn7/perks v1.0.1 // indirect
	github.com/cespare/xxhash/v2 v2.1.1 // indirect
	github.com/containerd/containerd v1.4.13 // indirect
	github.com/davecgh/go-spew v1.1.1 // indirect
	github.com/docker/docker-credential-helpers v0.4.1 // indirect
	github.com/dustin/go-humanize v1.0.0 // indirect
	github.com/elazarl/goproxy v0.0.0-20191011121108-aa519ddbe484 // indirect
	github.com/fatih/color v1.13.0 // indirect
	github.com/form3tech-oss/jwt-go v3.2.2+incompatible // indirect
	github.com/go-logr/logr v0.4.0 // indirect
	github.com/gofrs/uuid v4.2.0+incompatible // indirect
	github.com/gogo/protobuf v1.3.2 // indirect
	github.com/golang/groupcache v0.0.0-20200121045136-8c9f03a8e57e // indirect
	github.com/golang/protobuf v1.5.2 // indirect
	github.com/golang/snappy v0.0.1 // indirect
	github.com/google/go-cmp v0.5.6 // indirect
	github.com/google/gofuzz v1.1.0 // indirect
	github.com/google/uuid v1.3.0 // indirect
	github.com/google/wire v0.4.0 // indirect
	github.com/googleapis/gax-go v2.0.2+incompatible // indirect
	github.com/googleapis/gnostic v0.4.1 // indirect
	github.com/gorilla/context v1.1.1 // indirect
	github.com/gorilla/mux v1.3.1-0.20170228224354-599cba5e7b61 // indirect
	github.com/hashicorp/errwrap v1.0.0 // indirect
	github.com/hashicorp/go-cleanhttp v0.5.1 // indirect
	github.com/hashicorp/go-hclog v1.3.1 // indirect
	github.com/hashicorp/go-multierror v1.0.0 // indirect
	github.com/hashicorp/go-plugin v1.4.5 // indirect
	github.com/hashicorp/go-retryablehttp v0.5.4 // indirect
	github.com/hashicorp/go-rootcerts v1.0.1 // indirect
	github.com/hashicorp/go-sockaddr v1.0.2 // indirect
	github.com/hashicorp/go-uuid v1.0.2 // indirect
	github.com/hashicorp/hcl v1.0.0 // indirect
	github.com/hashicorp/vault/sdk v0.1.13 // indirect
	github.com/hashicorp/yamux v0.1.1 // indirect
	github.com/jcmturner/aescts/v2 v2.0.0 // indirect
	github.com/jcmturner/dnsutils/v2 v2.0.0 // indirect
	github.com/jcmturner/gofork v1.0.0 // indirect
	github.com/jcmturner/goidentity/v6 v6.0.1 // indirect
	github.com/jcmturner/gokrb5/v8 v8.4.2 // indirect
	github.com/jcmturner/rpc/v2 v2.0.3 // indirect
	github.com/json-iterator/go v1.1.12 // indirect
	github.com/jstemmer/go-junit-report v0.9.1 // indirect
	github.com/klauspost/compress v1.15.6 // indirect
	github.com/klauspost/cpuid/v2 v2.0.12 // indirect
	github.com/masterzen/simplexml v0.0.0-20190410153822-31eea3082786 // indirect
	github.com/masterzen/winrm v0.0.0-20211231115050-232efb40349e // indirect
	github.com/mattn/go-colorable v0.1.13 // indirect
	github.com/mattn/go-ieproxy v0.0.1 // indirect
	github.com/mattn/go-isatty v0.0.16 // indirect
	github.com/matttproud/golang_protobuf_extensions v1.0.1 // indirect
	github.com/minio/md5-simd v1.1.2 // indirect
	github.com/minio/sha256-simd v1.0.0 // indirect
	github.com/mitchellh/go-homedir v1.1.0 // indirect
	github.com/mitchellh/go-testing-interface v1.14.1 // indirect
	github.com/mitchellh/mapstructure v1.4.0 // indirect
	github.com/moby/spdystream v0.2.0 // indirect
	github.com/moby/term v0.0.0-20201216013528-df9cb8a40635 // indirect
	github.com/modern-go/concurrent v0.0.0-20180306012644-bacd9c7ef1dd // indirect
	github.com/modern-go/reflect2 v1.0.2 // indirect
	github.com/morikuni/aec v1.0.0 // indirect
	github.com/oklog/run v1.1.0 // indirect
	github.com/opencontainers/go-digest v1.0.0 // indirect
	github.com/opencontainers/image-spec v1.0.1 // indirect
	github.com/pierrec/lz4 v2.0.5+incompatible // indirect
	github.com/pkg/errors v0.9.1 // indirect
	github.com/pmezard/go-difflib v1.0.0 // indirect
	github.com/rs/xid v1.4.0 // indirect
	github.com/ryanuber/go-glob v1.0.0 // indirect
	github.com/saracen/zipextra v0.0.0-20220303013732-0187cb0159ea // indirect
	github.com/spf13/pflag v1.0.5 // indirect
	github.com/stretchr/objx v0.3.0 // indirect
	go.opencensus.io v0.22.5 // indirect
	golang.org/x/lint v0.0.0-20200302205851-738671d3881b // indirect
	golang.org/x/mod v0.4.2 // indirect
	golang.org/x/oauth2 v0.0.0-20201203001011-0b49973bad19 // indirect
	golang.org/x/term v0.0.0-20210927222741-03fcf44c2211 // indirect
	golang.org/x/time v0.0.0-20210220033141-f8bda1e9f3ba // indirect
	golang.org/x/tools v0.0.0-20210106214847-113979e3529a // indirect
	golang.org/x/xerrors v0.0.0-20200804184101-5ec99f83aff1 // indirect
	google.golang.org/api v0.36.0 // indirect
	google.golang.org/appengine v1.6.7 // indirect
	google.golang.org/grpc v1.49.0 // indirect
	google.golang.org/protobuf v1.28.1 // indirect
	gopkg.in/inf.v0 v0.9.1 // indirect
	gopkg.in/ini.v1 v1.66.6 // indirect
	gopkg.in/square/go-jose.v2 v2.3.1 // indirect
	gopkg.in/yaml.v3 v3.0.1 // indirect
	gotest.tools/v3 v3.0.3 // indirect
	k8s.io/klog/v2 v2.8.0 // indirect
	k8s.io/utils v0.0.0-20201110183641-67b214c5f920 // indirect
	sigs.k8s.io/structured-merge-diff/v4 v4.1.0 // indirect
	sigs.k8s.io/yaml v1.2.0 // indirect
)
